[
    {
        "name": "Affogato",
        "price": "1.2",
        "size": "30",
        "ingredients": ["Vanilla ice cream", "Coffee", "Baileys"],
        "allergens": ["Lactose", "Alcohol"],
        "intensity": "3"
    },

    {
        "name": "Americano",
        "alt_name": "Espresso Americano",
        "price": "1.2",
        "size": "150",
        "ingredients": ["Coffee"]
    },

    {
        "name": "Caffè latte",
        "price": "1.2",
        "size": "300",
        "ingredients": ["Milk foam", "Coffee", "Steamed milk"],
        "allergens": ["Lactose"]
    },

    {
        "name": "Caffè mocha",
        "price": "1.2",
        "size": "-1",
        "ingredients": [""]
    },

    {
        "name": "Cafè au lait",
        "price": "1.2",
        "size": "-1",
        "ingredients": [""],
        "allergens": ["Lactose"]
    },

    {
        "name": "Cappuccino",
        "price": "1.2",
        "size": "240",
        "ingredients": [""],
        "allergens": ["Lactose"]
    },

    {
        "name": "Cold brew coffee",
        "price": "1.2",
        "size": "-1",
        "ingredients": [""]
    },

    {
        "name": "Double espresso",
        "alt_name": "Doppio",
        "price": "1.8",
        "size": "60",
        "intensity": "4",
        "ingredients": ["Coffee"]
    },

    {
        "name": "Espresso",
        "price": "1.2",
        "size": "30",
        "intensity": "4",
        "ingredients": ["Coffee"]
    },

    {
        "name": "Espresso con panna",
        "price": "1.2",
        "size": "30",
        "ingredients": ["Coffee", "Whipped cream"],
        "allergens": ["Lactose"]
    },

    {
        "name": "Espresso macchiato",
        "price": "1.2",
        "size": "50",
        "intensity": "1",
        "ingredients": [""],
        "allergens": ["Lactose"]
    },

    {
        "name": "Flat white",
        "price": "1.2",
        "size": "200",
        "ingredients": ["Coffee", "Steamed milk"],
        "allergens": ["Lactose"]
    },

    {
        "name": "Frappé",
        "price": "1.2",
        "size": "300",
        "ingredients": [""]
    },

    {
        "name": "Freakshake",
        "price": "1.2",
        "size": "-1",
        "ingredients": [""]
    },

    {
        "name": "Iced latte",
        "price": "1.2",
        "size": "300",
        "ingredients": [""]
    },

    {
        "name": "Iced mocha",
        "price": "1.2",
        "size": "300",
        "ingredients": [""]
    },

    {
        "name": "Irish coffee",
        "price": "1.2",
        "size": "300",
        "ingredients": [""],
        "allergens": ["Lactose", "Alcohol"]
    },

    {
        "name": "Latte macchiato",
        "price": "1.2",
        "size": "300",
        "ingredients": ["Steamed milk", "Coffee"]
    },

    {
        "name": "Lungo",
        "alt_name": "Espresso lungo",
        "price": "1.2",
        "size": "60",
        "ingredients": [""]
    },

    {
        "name": "Ristretto",
        "alt_name": "Espresso ristretto",
        "price": "1.2",
        "size": "20",
        "ingredients": [""]
    }
]
